…
You can see that the default version of copies() simply returns the input data with the addition of two columns called “copy_number” (which copy the rows is if multiple copies were detected) and “n_copies” (total number of row copies detected)3.

In this case, I’ve resampled the same data quite a lot, so there are multiple copies of all original rows. copies() will also preserve the original ordering of the rows unless you ask it to sort the output by the number of copies4. You do so by setting the sort_by_copies argument to TRUE. If you also only want to see duplicated rows, you can set the filter argument to “dupes”5.

pdata_resampled %>% 
  copies(filter = "dupes", sort_by_copies = TRUE)

## No column names specified - using all columns.

## Duplicated rows detected! 1000000 of 1000000 rows in the input data have multiple copies.

## # A tibble: 1,000,000 x 11
##       id d          g     high_low even     y1    y2    x1    x2    x3 n_copies
##    <int> <date>     <fct> <chr>    <lgl> <dbl> <dbl> <int> <int> <int>    <int>
##  1   599 2017-01-01 c     low      FALSE  264.  99.7    76   126   247      121
##  2   599 2017-01-01 c     low      FALSE  264.  99.7    76   126   247      121
##  3   599 2017-01-01 c     low      FALSE  264.  99.7    76   126   247      121
##  4   599 2017-01-01 c     low      FALSE  264.  99.7    76   126   247      121
##  5   599 2017-01-01 c     low      FALSE  264.  99.7    76   126   247      121
##  6   599 2017-01-01 c     low      FALSE  264.  99.7    76   126   247      121
##  7   599 2017-01-01 c     low      FALSE  264.  99.7    76   126   247      121
##  8   599 2017-01-01 c     low      FALSE  264.  99.7    76   126   247      121
##  9   599 2017-01-01 c     low      FALSE  264.  99.7    76   126   247      121
## 10   599 2017-01-01 c     low      FALSE  264.  99.7    76   126   247      121
## # ... with 999,990 more rows
…
“l”: logical

“n”: numeric

“all”: shortcut for all of the above & syntactically equivalent to c(“d”, “f”, “c”, “l”, “n”)

This can save you time both by avoiding a dplyr::select(where()) layer sometimes and also in terms of execution time (especially on larger datasets), because no unnecessary operations are performed upon columns of non-requested classes.

pdata_resampled %>%
  select(-id) %>% 
  describe_all(g, d, #group by factor variable "g" and date variable "d"
               class = "n") #only describe numeric variables other than the id column

## # A tibble: 300 x 17
## # Groups:   d, g [60]
##    variable d          g     cases     n    na  p_na  mean    sd    se    p0
##    <chr>    <date>     <fct> <int> <int> <int> <dbl> <dbl> <dbl> <dbl> <dbl>
##  1 x1       2017-01-01 c     15469 15469     0     0  52.0  29.4 0.236     1
##  2 x1       2012-01-01 d     16411 16411     0     0  48.1  29.1 0.227     2
##  3 x1       2019-01-01 d     16655 16655     0     0  53.7  29.3 0.227     1
##  4 x1       2013-01-01 c     15313 15313     0     0  51.6  29.2 0.236     1
##  5 x1       2008-01-01 d     16657 16657     0     0  50.2  27.4 0.212     1
##  6 x1       2019-01-01 a     18149 18149     0     0  52.5  27.1 0.201     2
##  7 x1       2019-01-01 b     17369 17369     0     0  53.7  30.3 0.23      1
##  8 x1       2018-01-01 d     16367 16367     0     0  50.9  28.9 0.226     1
##  9 x1       2010-01-01 c     15473 15473     0     0  48.9  28.7 0.231     2
## 10 x1       2014-01-01 e     16284 16284     0     0  50.9  28.1 0.22      1
## # ... with 290 more rows, and 6 more variables: p25 <dbl>, p50 <dbl>,
## #   p75 <dbl>, p100 <dbl>, skew <dbl>, kurt <dbl>
…
