…
#or gapminder$pop_in_millions <- gapminder$pop/1e6
#and gapminder$rounded_lifeExp <- round(gapminder$lifeExp, 0)
#if you don't mind modifying the original data frame that is,,,

#or course, columns and rows of a single dataframe or matrix can be rearranged
#or duplicated in base R but just using the special `[]` operator that works for
#data frames and matrices

gapminder[, c(1:3, 6, 5)] #rearrange & subset columns

## # A tibble: 1,704 x 5
##    country     continent  year gdpPercap      pop
##    <fct>       <fct>     <int>     <dbl>    <int>
##  1 Afghanistan Asia       1952      779.  8425333
##  2 Afghanistan Asia       1957      821.  9240934
##  3 Afghanistan Asia       1962      853. 10267083
##  4 Afghanistan Asia       1967      836. 11537966
##  5 Afghanistan Asia       1972      740. 13079460
##  6 Afghanistan Asia       1977      786. 14880372
##  7 Afghanistan Asia       1982      978. 12881816
##  8 Afghanistan Asia       1987      852. 13867957
##  9 Afghanistan Asia       1992      649. 16317921
## 10 Afghanistan Asia       1997      635. 22227415
## # ... with 1,694 more rows
…
