A Scientist's Guide to R: Step 2.1 Data Transformation - part 2 | Craig Hutton, PhD
…
               names_to = c(".value", 
                            #special string that tells pivot_longer to use names
                            #on each side of the separator pattern

                            "session"), #name of the key column to use for the names
               
               names_sep = "test" #separator to use
               )

ob_long2

## # A tibble: 80 x 7
##    subject_id treatment gender session   pre  post   fup
##         <int> <fct>     <fct>  <chr>   <dbl> <dbl> <dbl>
##  1          1 control   M      1           1     3     2
##  2          1 control   M      2           2     2     3
##  3          1 control   M      3           4     5     2
##  4          1 control   M      4           2     3     4
##  5          1 control   M      5           1     2     4
##  6          2 control   M      1           4     2     4
##  7          2 control   M      2           4     2     5
##  8          2 control   M      3           5     3     6
##  9          2 control   M      4           3     5     4
## 10          2 control   M      5           4     3     1
## # ... with 70 more rows

#directly with a regular expression using the matches() tidyselect helper function
ob_long3 <- ob_df_v2 %>%
  pivot_longer(cols = matches("\\."), #select columns with names matching a regular expression pattern
               names_to = c(".value", "session"), #special ".value" indictor and name of the key column to use for the names
               names_sep = "\\.") #separator to use

ob_long3

## # A tibble: 80 x 7
##    subject_id treatment gender session   pre  post   fup
##         <int> <fct>     <fct>  <chr>   <dbl> <dbl> <dbl>
##  1          1 control   M      1           1     3     2
##  2          1 control   M      2           2     2     3
##  3          1 control   M      3           4     5     2
##  4          1 control   M      4           2     3     4
##  5          1 control   M      5           1     2     4
##  6          2 control   M      1           4     2     4
##  7          2 control   M      2           4     2     5
##  8          2 control   M      3           5     3     6
##  9          2 control   M      4           3     5     4
## 10          2 control   M      5           4     3     1
## # ... with 70 more rows
…
  values_to = "count")

who_long %>% 
  arrange(desc(count)) # arrange by count in descending order

## # A tibble: 405,440 x 8
##    country iso2  iso3   year diagnosis gender age    count
##    <chr>   <chr> <chr> <int> <chr>     <chr>  <chr>  <int>
##  1 India   IN    IND    2007 sn        m      3544  250051
##  2 India   IN    IND    2007 sn        f      3544  148811
##  3 China   CN    CHN    2013 rel       m      65    124476
##  4 China   CN    CHN    2013 rel       m      5564  112558
##  5 India   IN    IND    2007 ep        m      3544  105825
##  6 India   IN    IND    2007 ep        f      3544  101015
##  7 China   CN    CHN    2013 rel       m      4554  100297
##  8 India   IN    IND    2009 sp        m      3544   90830
##  9 India   IN    IND    2008 sp        m      3544   90498
## 10 India   IN    IND    2010 sp        m      3544   90440
## # ... with 405,430 more rows
…
names_from: the key column(s) to pull the names from for the new set of
replacement columns

values_from: the value column(s) to pull values from for the new set of
replacement columns

You might want to do this as a temporary transformation to facilitate the construction of new variables derived from a combination of the more widely distributed value columns that result from the application of pivot_wider() with mutate(), or if you plan to export the data in wide from to share with someone working in other statistical software programs which require wide data.

gap_df %>% 
    pivot_wider(id_cols = c(country, continent),  
                names_from = year, values_from = lifeExp)

## # A tibble: 142 x 14
##    country continent `1952` `1957` `1962` `1967` `1972` `1977` `1982` `1987`
##    <fct>   <fct>      <dbl>  <dbl>  <dbl>  <dbl>  <dbl>  <dbl>  <dbl>  <dbl>
##  1 Afghan~ Asia        28.8   30.3   32.0   34.0   36.1   38.4   39.9   40.8
##  2 Albania Europe      55.2   59.3   64.8   66.2   67.7   68.9   70.4   72  
##  3 Algeria Africa      43.1   45.7   48.3   51.4   54.5   58.0   61.4   65.8
##  4 Angola  Africa      30.0   32.0   34     36.0   37.9   39.5   39.9   39.9
##  5 Argent~ Americas    62.5   64.4   65.1   65.6   67.1   68.5   69.9   70.8
##  6 Austra~ Oceania     69.1   70.3   70.9   71.1   71.9   73.5   74.7   76.3
##  7 Austria Europe      66.8   67.5   69.5   70.1   70.6   72.2   73.2   74.9
##  8 Bahrain Asia        50.9   53.8   56.9   59.9   63.3   65.6   69.1   70.8
##  9 Bangla~ Asia        37.5   39.3   41.2   43.5   45.3   46.9   50.0   52.8
## 10 Belgium Europe      68     69.2   70.2   70.9   71.4   72.8   73.9   75.4
## # ... with 132 more rows, and 4 more variables: `1992` <dbl>, `1997` <dbl>,
## #   `2002` <dbl>, `2007` <dbl>
…
sep: string to use to demarcate the component values of the united column

remove: set this to FALSE if you want to retain the original columns, leave
it as the default value of TRUE if you want to drop them.

For example, we could combine the country and continent columns of the gapminder data frame copy gap_df:

#drop the original columns
united_gap <- gap_df %>% 
  unite(col = "country_continent",
        country, continent,
        sep = ";") #the default separator is "_"
united_gap

## # A tibble: 1,704 x 5
##    country_continent  year lifeExp      pop gdpPercap
##    <chr>             <int>   <dbl>    <int>     <dbl>
##  1 Afghanistan;Asia   1952    28.8  8425333      779.
##  2 Afghanistan;Asia   1957    30.3  9240934      821.
##  3 Afghanistan;Asia   1962    32.0 10267083      853.
##  4 Afghanistan;Asia   1967    34.0 11537966      836.
##  5 Afghanistan;Asia   1972    36.1 13079460      740.
##  6 Afghanistan;Asia   1977    38.4 14880372      786.
##  7 Afghanistan;Asia   1982    39.9 12881816      978.
##  8 Afghanistan;Asia   1987    40.8 13867957      852.
##  9 Afghanistan;Asia   1992    41.7 16317921      649.
## 10 Afghanistan;Asia   1997    41.8 22227415      635.
## # ... with 1,694 more rows

#keep them
gap_df %>% 
  unite(col = "country_continent",
        country, continent,
        sep = ";",
        remove = FALSE) 

## # A tibble: 1,704 x 7
##    country_continent country     continent  year lifeExp      pop gdpPercap
##    <chr>             <fct>       <fct>     <int>   <dbl>    <int>     <dbl>
##  1 Afghanistan;Asia  Afghanistan Asia       1952    28.8  8425333      779.
##  2 Afghanistan;Asia  Afghanistan Asia       1957    30.3  9240934      821.
##  3 Afghanistan;Asia  Afghanistan Asia       1962    32.0 10267083      853.
##  4 Afghanistan;Asia  Afghanistan Asia       1967    34.0 11537966      836.
##  5 Afghanistan;Asia  Afghanistan Asia       1972    36.1 13079460      740.
##  6 Afghanistan;Asia  Afghanistan Asia       1977    38.4 14880372      786.
##  7 Afghanistan;Asia  Afghanistan Asia       1982    39.9 12881816      978.
##  8 Afghanistan;Asia  Afghanistan Asia       1987    40.8 13867957      852.
##  9 Afghanistan;Asia  Afghanistan Asia       1992    41.7 16317921      649.
## 10 Afghanistan;Asia  Afghanistan Asia       1997    41.8 22227415      635.
## # ... with 1,694 more rows
…
Here we’ll use separate() to reverse what we just did with unite()

gap_df_separated <- united_gap %>% 
  separate(col = "country_continent",
           into = c("country", "continent"),
           sep = ";") %>% 
  #one thing separate() won't do is convert strings to factors for you (the
  #original variables were factors), so we'll take of that using dplyr::mutate()
  mutate(country = as.factor(country), 
         continent = as.factor(continent))

gap_df_separated

## # A tibble: 1,704 x 6
##    country     continent  year lifeExp      pop gdpPercap
##    <fct>       <fct>     <int>   <dbl>    <int>     <dbl>
##  1 Afghanistan Asia       1952    28.8  8425333      779.
##  2 Afghanistan Asia       1957    30.3  9240934      821.
##  3 Afghanistan Asia       1962    32.0 10267083      853.
##  4 Afghanistan Asia       1967    34.0 11537966      836.
##  5 Afghanistan Asia       1972    36.1 13079460      740.
##  6 Afghanistan Asia       1977    38.4 14880372      786.
##  7 Afghanistan Asia       1982    39.9 12881816      978.
##  8 Afghanistan Asia       1987    40.8 13867957      852.
##  9 Afghanistan Asia       1992    41.7 16317921      649.
## 10 Afghanistan Asia       1997    41.8 22227415      635.
## # ... with 1,694 more rows

identical(gap_df, gap_df_separated)

## [1] TRUE

#keep the complex column

united_gap %>% 
  separate(col = "country_continent",
           into = c("country", "continent"),
           sep = ";",
           remove = FALSE) 

## # A tibble: 1,704 x 7
##    country_continent country     continent  year lifeExp      pop gdpPercap
##    <chr>             <chr>       <chr>     <int>   <dbl>    <int>     <dbl>
##  1 Afghanistan;Asia  Afghanistan Asia       1952    28.8  8425333      779.
##  2 Afghanistan;Asia  Afghanistan Asia       1957    30.3  9240934      821.
##  3 Afghanistan;Asia  Afghanistan Asia       1962    32.0 10267083      853.
##  4 Afghanistan;Asia  Afghanistan Asia       1967    34.0 11537966      836.
##  5 Afghanistan;Asia  Afghanistan Asia       1972    36.1 13079460      740.
##  6 Afghanistan;Asia  Afghanistan Asia       1977    38.4 14880372      786.
##  7 Afghanistan;Asia  Afghanistan Asia       1982    39.9 12881816      978.
##  8 Afghanistan;Asia  Afghanistan Asia       1987    40.8 13867957      852.
##  9 Afghanistan;Asia  Afghanistan Asia       1992    41.7 16317921      649.
## 10 Afghanistan;Asia  Afghanistan Asia       1997    41.8 22227415      635.
## # ... with 1,694 more rows

#drop one of the new columns using NA

united_gap %>% 
  separate(col = "country_continent",
           into = c("country", NA),
           sep = ";") 

## # A tibble: 1,704 x 5
##    country      year lifeExp      pop gdpPercap
##    <chr>       <int>   <dbl>    <int>     <dbl>
##  1 Afghanistan  1952    28.8  8425333      779.
##  2 Afghanistan  1957    30.3  9240934      821.
##  3 Afghanistan  1962    32.0 10267083      853.
##  4 Afghanistan  1967    34.0 11537966      836.
##  5 Afghanistan  1972    36.1 13079460      740.
##  6 Afghanistan  1977    38.4 14880372      786.
##  7 Afghanistan  1982    39.9 12881816      978.
##  8 Afghanistan  1987    40.8 13867957      852.
##  9 Afghanistan  1992    41.7 16317921      649.
## 10 Afghanistan  1997    41.8 22227415      635.
## # ... with 1,694 more rows
…
