A Scientist's Guide to R: Step 3.0 - exploring data with elucidate | Craig Hutton, PhD
…
dim(pdata_resampled) 

## [1] 1000000      10

4 interrogating data

dplyr::glimpse() is a great 1st step in the data interrogation process. After learning about the columns names classes, dimensions, and previewing the first several rows of the data, the next thing I usually check is how many copies I have of each row based on columns like subject ID # and date, where I’m hoping that there are as many copies as I should find (i.e. one row per ID and date combination, representing unique measurements). Usually this means making sure there aren’t any unexpected row duplicates. This can easily be evaluated with elucidate::copies().

pdata_resampled %>% 
  copies()

## No column names specified - using all columns.

## # A tibble: 1,000,000 x 12
##       id d          g     high_low even     y1    y2    x1    x2    x3
##    <int> <date>     <fct> <chr>    <lgl> <dbl> <dbl> <int> <int> <int>
##  1   117 2015-01-01 a     low      FALSE  149.  98.7    38   159   231
##  2   835 2018-01-01 b     high     FALSE  184. 104.     22   199   236
##  3   673 2018-01-01 c     high     FALSE  247. 118.     14   106   237
##  4   750 2013-01-01 b     low      TRUE   122.  99.3    80   193   272
##  5   865 2011-01-01 c     low      FALSE  140.  99.9    78   183   228
##  6   502 2017-01-01 b     high     TRUE   189. 109.     29   178   274
##  7   554 2017-01-01 d     high     TRUE   235. 106.     17   112   257
##  8   225 2018-01-01 b     high     FALSE  219. 108.     53   195   244
##  9   846 2010-01-01 c     low      TRUE   121.  99.0    18   125   242
## 10   469 2018-01-01 c     high     FALSE  247. 101.     96   161   236
## # ... with 999,990 more rows, and 2 more variables: copy_number <int>,
## #   n_copies <int>

4.1 checking for row copies()

By default, copies() returns all rows in the original data plus an “n_copies” column indicating how many copies there are, based on all original columns. In this case, we’ve resampled the same data quite a lot, so there are multiple copies of all original rows. copies() will also preserve the original ordering of the rows unless you ask it to sort the output by the number of copies3. You do so by setting the sort_by_copies argument to TRUE. If you also only want to exclude non-duplicated (i.e. completely unique) rows, you can set the filter argument to “dupes”4.

pdata_resampled %>% 
  copies(filter = "dupes", sort_by_copies = TRUE)

## No column names specified - using all columns.

## Duplicated rows detected! 1000000 of 1000000 rows in the input data have multiple copies.

## # A tibble: 1,000,000 x 11
##       id d          g     high_low even     y1    y2    x1    x2    x3 n_copies
##    <int> <date>     <fct> <chr>    <lgl> <dbl> <dbl> <int> <int> <int>    <int>
##  1   627 2019-01-01 c     high     FALSE  261.  107.    65   155   243      125
##  2   627 2019-01-01 c     high     FALSE  261.  107.    65   155   243      125
##  3   627 2019-01-01 c     high     FALSE  261.  107.    65   155   243      125
##  4   627 2019-01-01 c     high     FALSE  261.  107.    65   155   243      125
##  5   627 2019-01-01 c     high     FALSE  261.  107.    65   155   243      125
##  6   627 2019-01-01 c     high     FALSE  261.  107.    65   155   243      125
##  7   627 2019-01-01 c     high     FALSE  261.  107.    65   155   243      125
##  8   627 2019-01-01 c     high     FALSE  261.  107.    65   155   243      125
##  9   627 2019-01-01 c     high     FALSE  261.  107.    65   155   243      125
## 10   627 2019-01-01 c     high     FALSE  261.  107.    65   155   243      125
## # ... with 999,990 more rows
…
“l”: logical

“n”: numeric

“all”: shortcut for all of the above & syntactically equivalent to c(“d”, “f”, “c”, “l”, “n”)

This can save you time both by avoiding a dplyr::select(where()) layer sometimes and also in terms of execution time (especially on larger datasets), because no unnecessary operations are performed upon columns of non-requested classes.

pdata_resampled %>%
  select(-id) %>% 
  describe_all(g, d, #group by factor variable "g" and date variable "d"
               class = "n") #only describe numeric variables other than the id column

## # A tibble: 300 x 17
## # Groups:   d, g [60]
##    variable d          g     cases     n    na  p_na  mean    sd    se    p0
##    <chr>    <date>     <fct> <int> <int> <int> <dbl> <dbl> <dbl> <dbl> <dbl>
##  1 x1       2015-01-01 a     17843 17843     0     0  47.0  28.9 0.216     1
##  2 x1       2018-01-01 b     17019 17019     0     0  51.0  28.7 0.22      1
##  3 x1       2018-01-01 c     15387 15387     0     0  46.7  28.5 0.23      1
##  4 x1       2013-01-01 b     17182 17182     0     0  48.6  28.7 0.219     1
##  5 x1       2011-01-01 c     15548 15548     0     0  49.3  28.1 0.225     1
##  6 x1       2017-01-01 b     17091 17091     0     0  50.8  29.3 0.224     1
##  7 x1       2017-01-01 d     16402 16402     0     0  47.0  29.1 0.227     1
##  8 x1       2010-01-01 c     15399 15399     0     0  49.0  28.7 0.232     2
##  9 x1       2019-01-01 e     16519 16519     0     0  49.6  28.4 0.221     1
## 10 x1       2015-01-01 b     17283 17283     0     0  50.4  28.6 0.218     1
## # ... with 290 more rows, and 6 more variables: p25 <dbl>, p50 <dbl>,
## #   p75 <dbl>, p100 <dbl>, skew <dbl>, kurt <dbl>
…
