A Scientist's Guide to R: Step 2.1. Data Transformation part 1 | Craig Hutton, PhD
…
# use filter to get a subset of all characters from either Tatooine or Naboo

filter(df, 
       homeworld == "Tatooine" | homeworld == "Naboo") #recall that the vertical bar `|` is the logical operator 'or'

## # A tibble: 21 x 13
##    name  height  mass hair_color skin_color eye_color birth_year gender
##    <chr>  <int> <dbl> <chr>      <chr>      <chr>          <dbl> <chr> 
##  1 Luke~    172    77 blond      fair       blue            19   male  
##  2 C-3PO    167    75 <NA>       gold       yellow         112   <NA>  
##  3 R2-D2     96    32 <NA>       white, bl~ red             33   <NA>  
##  4 Dart~    202   136 none       white      yellow          41.9 male  
##  5 Owen~    178   120 brown, gr~ light      blue            52   male  
##  6 Beru~    165    75 brown      light      blue            47   female
##  7 R5-D4     97    32 <NA>       white, red red             NA   <NA>  
##  8 Bigg~    183    84 black      light      brown           24   male  
##  9 Anak~    188    84 blond      fair       blue            41.9 male  
## 10 Palp~    170    75 grey       pale       yellow          82   male  
## # ... with 11 more rows, and 5 more variables: homeworld <chr>, species <chr>,
## #   films <list>, vehicles <list>, starships <list>

# this is read: "filter the data frame "df" to extract rows where the value of the variable homeworld is equal to
# "Tatooine" or homeworld is equal to "Naboo"

#in base R, one equivalent option would be:

df[(df$homeworld == "Tatooine" | df$homeworld == "Naboo"), ]

## # A tibble: 31 x 13
##    name  height  mass hair_color skin_color eye_color birth_year gender
##    <chr>  <int> <dbl> <chr>      <chr>      <chr>          <dbl> <chr> 
##  1 Luke~    172    77 blond      fair       blue            19   male  
##  2 C-3PO    167    75 <NA>       gold       yellow         112   <NA>  
##  3 R2-D2     96    32 <NA>       white, bl~ red             33   <NA>  
##  4 Dart~    202   136 none       white      yellow          41.9 male  
##  5 Owen~    178   120 brown, gr~ light      blue            52   male  
##  6 Beru~    165    75 brown      light      blue            47   female
##  7 R5-D4     97    32 <NA>       white, red red             NA   <NA>  
##  8 Bigg~    183    84 black      light      brown           24   male  
##  9 Anak~    188    84 blond      fair       blue            41.9 male  
## 10 <NA>      NA    NA <NA>       <NA>       <NA>            NA   <NA>  
## # ... with 21 more rows, and 5 more variables: homeworld <chr>, species <chr>,
## #   films <list>, vehicles <list>, starships <list>
…
# to get indices instead of logical values, you can wrap the above in which(), e.g.

ind <- which(df$homeworld == "Tatooine" | df$homeworld == "Naboo") #returns the indices where the criteria are TRUE

ind #calling an object itself without applying any functions to it just prints it to the console

##  [1]  1  2  3  4  6  7  8  9 11 20 34 35 36 37 40 41 57 58 59 63 87

#note that you could also pass a vector of integers to subset a df using `[]`
df[ind, ]

## # A tibble: 21 x 13
##    name  height  mass hair_color skin_color eye_color birth_year gender
##    <chr>  <int> <dbl> <chr>      <chr>      <chr>          <dbl> <chr> 
##  1 Luke~    172    77 blond      fair       blue            19   male  
##  2 C-3PO    167    75 <NA>       gold       yellow         112   <NA>  
##  3 R2-D2     96    32 <NA>       white, bl~ red             33   <NA>  
##  4 Dart~    202   136 none       white      yellow          41.9 male  
##  5 Owen~    178   120 brown, gr~ light      blue            52   male  
##  6 Beru~    165    75 brown      light      blue            47   female
##  7 R5-D4     97    32 <NA>       white, red red             NA   <NA>  
##  8 Bigg~    183    84 black      light      brown           24   male  
##  9 Anak~    188    84 blond      fair       blue            41.9 male  
## 10 Palp~    170    75 grey       pale       yellow          82   male  
## # ... with 11 more rows, and 5 more variables: homeworld <chr>, species <chr>,
## #   films <list>, vehicles <list>, starships <list>
…
## The following objects are masked from 'package:stats':
## 
##     filter, lag

## The following objects are masked from 'package:base':
## 
##     intersect, setdiff, setequal, union

#in base R, you would extract columns using either [, "names"] or [["name]], or $name

df[, "name"] #[] returns another data frame

## # A tibble: 87 x 1
##    name              
##    <chr>             
##  1 Luke Skywalker    
##  2 C-3PO             
##  3 R2-D2             
##  4 Darth Vader       
##  5 Leia Organa       
##  6 Owen Lars         
##  7 Beru Whitesun lars
##  8 R5-D4             
##  9 Biggs Darklighter 
## 10 Obi-Wan Kenobi    
## # ... with 77 more rows
…
df[, c("name", "mass", "hair_color")] #[] can accept a vector of names

## # A tibble: 87 x 3
##    name                mass hair_color   
##    <chr>              <dbl> <chr>        
##  1 Luke Skywalker        77 blond        
##  2 C-3PO                 75 <NA>         
##  3 R2-D2                 32 <NA>         
##  4 Darth Vader          136 none         
##  5 Leia Organa           49 brown        
##  6 Owen Lars            120 brown, grey  
##  7 Beru Whitesun lars    75 brown        
##  8 R5-D4                 32 <NA>         
##  9 Biggs Darklighter     84 black        
## 10 Obi-Wan Kenobi        77 auburn, white
## # ... with 77 more rows

#df[[c("name", "mass", "hair_color")]] #[[]] can't and returns an error

#or a logical or integer vector the same length as the number of columns

df[, 1:ncol(df) %% 2 == 0] #columns with even indices

## # A tibble: 87 x 6
##    height hair_color    eye_color gender species vehicles 
##     <int> <chr>         <chr>     <chr>  <chr>   <list>   
##  1    172 blond         blue      male   Human   <chr [2]>
##  2    167 <NA>          yellow    <NA>   Droid   <chr [0]>
##  3     96 <NA>          red       <NA>   Droid   <chr [0]>
##  4    202 none          yellow    male   Human   <chr [0]>
##  5    150 brown         brown     female Human   <chr [1]>
##  6    178 brown, grey   blue      male   Human   <chr [0]>
##  7    165 brown         blue      female Human   <chr [0]>
##  8     97 <NA>          red       <NA>   Droid   <chr [0]>
##  9    183 black         brown     male   Human   <chr [0]>
## 10    182 auburn, white blue-gray male   Human   <chr [1]>
## # ... with 77 more rows

df[, 1:5] #1st 5 columns

## # A tibble: 87 x 5
##    name               height  mass hair_color    skin_color 
##    <chr>               <int> <dbl> <chr>         <chr>      
##  1 Luke Skywalker        172    77 blond         fair       
##  2 C-3PO                 167    75 <NA>          gold       
##  3 R2-D2                  96    32 <NA>          white, blue
##  4 Darth Vader           202   136 none          white      
##  5 Leia Organa           150    49 brown         light      
##  6 Owen Lars             178   120 brown, grey   light      
##  7 Beru Whitesun lars    165    75 brown         light      
##  8 R5-D4                  97    32 <NA>          white, red 
##  9 Biggs Darklighter     183    84 black         light      
## 10 Obi-Wan Kenobi        182    77 auburn, white fair       
## # ... with 77 more rows

#dplyr::select() makes extracting multiple columns even easier
select(df, 
       name, mass, hair_color) #note that names don't have to be quoted

## # A tibble: 87 x 3
##    name                mass hair_color   
##    <chr>              <dbl> <chr>        
##  1 Luke Skywalker        77 blond        
##  2 C-3PO                 75 <NA>         
##  3 R2-D2                 32 <NA>         
##  4 Darth Vader          136 none         
##  5 Leia Organa           49 brown        
##  6 Owen Lars            120 brown, grey  
##  7 Beru Whitesun lars    75 brown        
##  8 R5-D4                 32 <NA>         
##  9 Biggs Darklighter     84 black        
## 10 Obi-Wan Kenobi        77 auburn, white
## # ... with 77 more rows

select(df, name:hair_color) #and you can get all columns in a range using unquoted names

## # A tibble: 87 x 4
##    name               height  mass hair_color   
##    <chr>               <int> <dbl> <chr>        
##  1 Luke Skywalker        172    77 blond        
##  2 C-3PO                 167    75 <NA>         
##  3 R2-D2                  96    32 <NA>         
##  4 Darth Vader           202   136 none         
##  5 Leia Organa           150    49 brown        
##  6 Owen Lars             178   120 brown, grey  
##  7 Beru Whitesun lars    165    75 brown        
##  8 R5-D4                  97    32 <NA>         
##  9 Biggs Darklighter     183    84 black        
## 10 Obi-Wan Kenobi        182    77 auburn, white
## # ... with 77 more rows

#select everything other than a specified column using the subtraction operator "-"
select(df, -hair_color, -mass) 

## # A tibble: 87 x 11
##    name  height skin_color eye_color birth_year gender homeworld species films
##    <chr>  <int> <chr>      <chr>          <dbl> <chr>  <chr>     <chr>   <lis>
##  1 Luke~    172 fair       blue            19   male   Tatooine  Human   <chr~
##  2 C-3PO    167 gold       yellow         112   <NA>   Tatooine  Droid   <chr~
##  3 R2-D2     96 white, bl~ red             33   <NA>   Naboo     Droid   <chr~
##  4 Dart~    202 white      yellow          41.9 male   Tatooine  Human   <chr~
##  5 Leia~    150 light      brown           19   female Alderaan  Human   <chr~
##  6 Owen~    178 light      blue            52   male   Tatooine  Human   <chr~
##  7 Beru~    165 light      blue            47   female Tatooine  Human   <chr~
##  8 R5-D4     97 white, red red             NA   <NA>   Tatooine  Droid   <chr~
##  9 Bigg~    183 light      brown           24   male   Tatooine  Human   <chr~
## 10 Obi-~    182 fair       blue-gray       57   male   Stewjon   Human   <chr~
## # ... with 77 more rows, and 2 more variables: vehicles <list>,
## #   starships <list>

select(df, -c(name:hair_color)) #everything other than a range of named columns

## # A tibble: 87 x 9
##    skin_color eye_color birth_year gender homeworld species films vehicles
##    <chr>      <chr>          <dbl> <chr>  <chr>     <chr>   <lis> <list>  
##  1 fair       blue            19   male   Tatooine  Human   <chr~ <chr [2~
##  2 gold       yellow         112   <NA>   Tatooine  Droid   <chr~ <chr [0~
##  3 white, bl~ red             33   <NA>   Naboo     Droid   <chr~ <chr [0~
##  4 white      yellow          41.9 male   Tatooine  Human   <chr~ <chr [0~
##  5 light      brown           19   female Alderaan  Human   <chr~ <chr [1~
##  6 light      blue            52   male   Tatooine  Human   <chr~ <chr [0~
##  7 light      blue            47   female Tatooine  Human   <chr~ <chr [0~
##  8 white, red red             NA   <NA>   Tatooine  Droid   <chr~ <chr [0~
##  9 light      brown           24   male   Tatooine  Human   <chr~ <chr [0~
## 10 fair       blue-gray       57   male   Stewjon   Human   <chr~ <chr [1~
## # ... with 77 more rows, and 1 more variable: starships <list>

# dplyr also provides a number of "select helper" functions that allow you to
# select variables using string patterns, e.g.

select(df, contains("m")) #all columns with names that contain the letter m

## # A tibble: 87 x 4
##    name                mass homeworld films    
##    <chr>              <dbl> <chr>     <list>   
##  1 Luke Skywalker        77 Tatooine  <chr [5]>
##  2 C-3PO                 75 Tatooine  <chr [6]>
##  3 R2-D2                 32 Naboo     <chr [7]>
##  4 Darth Vader          136 Tatooine  <chr [4]>
##  5 Leia Organa           49 Alderaan  <chr [5]>
##  6 Owen Lars            120 Tatooine  <chr [3]>
##  7 Beru Whitesun lars    75 Tatooine  <chr [3]>
##  8 R5-D4                 32 Tatooine  <chr [1]>
##  9 Biggs Darklighter     84 Tatooine  <chr [1]>
## 10 Obi-Wan Kenobi        77 Stewjon   <chr [6]>
## # ... with 77 more rows

select(df, starts_with("m")) #all columns with names that start with the letter m 

## # A tibble: 87 x 1
##     mass
##    <dbl>
##  1    77
##  2    75
##  3    32
##  4   136
##  5    49
##  6   120
##  7    75
##  8    32
##  9    84
## 10    77
## # ... with 77 more rows

select(df, ends_with("s")) #all columns with names that end with the letter s 

## # A tibble: 87 x 5
##     mass species films     vehicles  starships
##    <dbl> <chr>   <list>    <list>    <list>   
##  1    77 Human   <chr [5]> <chr [2]> <chr [2]>
##  2    75 Droid   <chr [6]> <chr [0]> <chr [0]>
##  3    32 Droid   <chr [7]> <chr [0]> <chr [0]>
##  4   136 Human   <chr [4]> <chr [0]> <chr [1]>
##  5    49 Human   <chr [5]> <chr [1]> <chr [0]>
##  6   120 Human   <chr [3]> <chr [0]> <chr [0]>
##  7    75 Human   <chr [3]> <chr [0]> <chr [0]>
##  8    32 Droid   <chr [1]> <chr [0]> <chr [0]>
##  9    84 Human   <chr [1]> <chr [0]> <chr [1]>
## 10    77 Human   <chr [6]> <chr [1]> <chr [5]>
## # ... with 77 more rows
…
# a detailed introduction to the "matches" select helper, string manipulation,
# and regular expressions will be covered in a later post.

# see the documentation for select_helpers (from the tidyselect package, which
# is loaded with dplyr) for more info
?tidyselect::select_helpers

## starting httpd help server ...

##  done

# you can rearrange columns and rename them during the selection process
select(df, 5:last_col(), 1:4) #select columns 5 to the end, then columns 1 to 4 

## # A tibble: 87 x 13
##    skin_color eye_color birth_year gender homeworld species films vehicles
##    <chr>      <chr>          <dbl> <chr>  <chr>     <chr>   <lis> <list>  
##  1 fair       blue            19   male   Tatooine  Human   <chr~ <chr [2~
##  2 gold       yellow         112   <NA>   Tatooine  Droid   <chr~ <chr [0~
##  3 white, bl~ red             33   <NA>   Naboo     Droid   <chr~ <chr [0~
##  4 white      yellow          41.9 male   Tatooine  Human   <chr~ <chr [0~
##  5 light      brown           19   female Alderaan  Human   <chr~ <chr [1~
##  6 light      blue            52   male   Tatooine  Human   <chr~ <chr [0~
##  7 light      blue            47   female Tatooine  Human   <chr~ <chr [0~
##  8 white, red red             NA   <NA>   Tatooine  Droid   <chr~ <chr [0~
##  9 light      brown           24   male   Tatooine  Human   <chr~ <chr [0~
## 10 fair       blue-gray       57   male   Stewjon   Human   <chr~ <chr [1~
## # ... with 77 more rows, and 5 more variables: starships <list>, name <chr>,
## #   height <int>, mass <dbl>, hair_color <chr>
…
## [1] TRUE

4.1 renaming columns using select() or rename()

Columns can also be renamed when subsetting with the select() function or without subsetting using the rename() function (also in the dplyr package)

#rename and subset using select
select(df, nm = name, hgt = height, byear = birth_year) #select columns and rename them

## # A tibble: 87 x 3
##    nm                   hgt byear
##    <chr>              <int> <dbl>
##  1 Luke Skywalker       172  19  
##  2 C-3PO                167 112  
##  3 R2-D2                 96  33  
##  4 Darth Vader          202  41.9
##  5 Leia Organa          150  19  
##  6 Owen Lars            178  52  
##  7 Beru Whitesun lars   165  47  
##  8 R5-D4                 97  NA  
##  9 Biggs Darklighter    183  24  
## 10 Obi-Wan Kenobi       182  57  
## # ... with 77 more rows

#to just rename columns without subsetting, use dplyr::rename() instead of select()
rename(df, nm = name, hgt = height, b_year = birth_year) #returns all columns

## # A tibble: 87 x 13
##    nm      hgt  mass hair_color skin_color eye_color b_year gender homeworld
##    <chr> <int> <dbl> <chr>      <chr>      <chr>      <dbl> <chr>  <chr>    
##  1 Luke~   172    77 blond      fair       blue        19   male   Tatooine 
##  2 C-3PO   167    75 <NA>       gold       yellow     112   <NA>   Tatooine 
##  3 R2-D2    96    32 <NA>       white, bl~ red         33   <NA>   Naboo    
##  4 Dart~   202   136 none       white      yellow      41.9 male   Tatooine 
##  5 Leia~   150    49 brown      light      brown       19   female Alderaan 
##  6 Owen~   178   120 brown, gr~ light      blue        52   male   Tatooine 
##  7 Beru~   165    75 brown      light      blue        47   female Tatooine 
##  8 R5-D4    97    32 <NA>       white, red red         NA   <NA>   Tatooine 
##  9 Bigg~   183    84 black      light      brown       24   male   Tatooine 
## 10 Obi-~   182    77 auburn, w~ fair       blue-gray   57   male   Stewjon  
## # ... with 77 more rows, and 4 more variables: species <chr>, films <list>,
## #   vehicles <list>, starships <list>
…
5 mutate()

mutate() lets you modify or create new columns in a data frame.

#Say for example that you wanted to calculate the BMI of each character in the starwars data frame

df2 <- select(df, name, height, mass) #extract columns of interest

df3 <- mutate(df2,
       height_in_m  = height/100, #convert height from cm to m, store in new column "height_in_m"
       bmi = mass/(height_in_m^2), #add a column called bmi for the calculated body mass index of each character
       bmi = round(bmi, 1)) #round it to one significant digit/decimal place & assign back to the same name
df3

## # A tibble: 87 x 5
##    name               height  mass height_in_m   bmi
##    <chr>               <int> <dbl>       <dbl> <dbl>
##  1 Luke Skywalker        172    77        1.72  26  
##  2 C-3PO                 167    75        1.67  26.9
##  3 R2-D2                  96    32        0.96  34.7
##  4 Darth Vader           202   136        2.02  33.3
##  5 Leia Organa           150    49        1.5   21.8
##  6 Owen Lars             178   120        1.78  37.9
##  7 Beru Whitesun lars    165    75        1.65  27.5
##  8 R5-D4                  97    32        0.97  34  
##  9 Biggs Darklighter     183    84        1.83  25.1
## 10 Obi-Wan Kenobi        182    77        1.82  23.2
## # ... with 77 more rows
…
# As shown above, mutate lets you combine these steps into a single function call and doesn't
# require you to specify the dataframe$ component multiple times, you only have
# to supply the name of the data frame as the 1st argument.

# the transmute function (also in the dplyr package) is an alternative to mutate that
# only retains variables you specify (i.e. it combines select and mutate in a single step)
# You probably won't use it as often as mutate, but it can be helpful occassionally

transmute(df2,
       height_in_m  = height/100, #convert height from cm to m, store in new column "height_in_m"
       bmi = mass/(height_in_m^2), #add a column called bmi for the calculated body mass index of each character
       bmi = round(bmi, 1))

## # A tibble: 87 x 2
##    height_in_m   bmi
##          <dbl> <dbl>
##  1        1.72  26  
##  2        1.67  26.9
##  3        0.96  34.7
##  4        2.02  33.3
##  5        1.5   21.8
##  6        1.78  37.9
##  7        1.65  27.5
##  8        0.97  34  
##  9        1.83  25.1
## 10        1.82  23.2
## # ... with 77 more rows
…
